<!--{* /////////////////////////////////////////////////////////////////////////////////////
□□□□□□□□□□□□□[ユーザーへの自動返信メールテンプレート]□□□□□□□□□□□□□
////  ここはコメントアウトの領域です。こちらに説明文を加えておきます。                  ////
////  このコメント欄を消去する必要はありません。                                        ////
////  このメールテンプレートはSmartyエンジンによるタグの利用が可能です。                ////
////  ifやsection、foreachといった分岐やループ処理も可能です。                          ////
////                                                                                    ////
////  開始タグ'<!--{'と終了タグ'--}>'の間には、"$" + INPUT入力欄のname値を入れます。    ////
////                                                                                    ////
////  その他、事前に予約されているタグがあります。                                      ////
////    <!--{$UA}-->   : 送信者のユーザーエージェントを出力します。                     ////
////    <!--{$IP}-->   : 送信者のIPアドレスを出力します。                               ////
////    <!--{$HOST}--> : 送信者のホストを出力します。                                   ////
////    <!--{$DATE}--> : 送信日時を出力します。                                         ////
////    <!--{$TIME}--> : 送信時間を出力します。                                         ////
////    <!--{$YOUBI}--> : 送信した日の曜日を出力します。                                ////
////    ※上記予約タグの値はname値に利用しないで下さい。                                ////
/////////////////////////////////////////////////////////////////////////////////////// *}-->
<!--{* ↓↓↓↓↓↓↓↓↓↓↓↓↓[メールタイトルここから]↓↓↓↓↓↓↓↓↓↓↓↓↓ *}-->
【TAC税理士講座】合格祝賀会ご予約内容の確認（自動返信）
<!--{* ↑↑↑↑↑↑↑↑↑↑↑↑↑[メールタイトルここまで]↑↑↑↑↑↑↑↑↑↑↑↑↑ *}-->
